01-Genese.md:1,31
01-Genese.md:2,25
01-Genese.md:3,24
01-Genese.md:4,26
01-Genese.md:5,32
01-Genese.md:6,22
01-Genese.md:7,24
01-Genese.md:8,22
01-Genese.md:9,29
01-Genese.md:10,32
01-Genese.md:11,32
01-Genese.md:12,20
01-Genese.md:13,18
01-Genese.md:14,24
01-Genese.md:15,21
01-Genese.md:16,16
01-Genese.md:17,27
01-Genese.md:18,33
01-Genese.md:19,38
01-Genese.md:20,18
01-Genese.md:21,34
01-Genese.md:22,24
01-Genese.md:23,20
01-Genese.md:24,67
01-Genese.md:25,34
01-Genese.md:26,35
01-Genese.md:27,46
01-Genese.md:28,22
01-Genese.md:29,35
01-Genese.md:30,43
01-Genese.md:31,54
01-Genese.md:32,33
01-Genese.md:33,20
01-Genese.md:34,31
01-Genese.md:35,29
01-Genese.md:36,43
01-Genese.md:37,36
01-Genese.md:38,30
01-Genese.md:39,23
01-Genese.md:40,23
01-Genese.md:41,57
01-Genese.md:42,38
01-Genese.md:43,34
01-Genese.md:44,34
01-Genese.md:45,28
01-Genese.md:46,34
01-Genese.md:47,31
01-Genese.md:48,22
01-Genese.md:49,33
01-Genese.md:50,26
02-Exode.md:1,22
02-Exode.md:2,25
02-Exode.md:3,22
02-Exode.md:4,31
02-Exode.md:5,23
02-Exode.md:6,30
02-Exode.md:7,29
02-Exode.md:8,28
02-Exode.md:9,35
02-Exode.md:10,29
02-Exode.md:11,10
02-Exode.md:12,51
02-Exode.md:13,22
02-Exode.md:14,31
02-Exode.md:15,27
02-Exode.md:16,36
02-Exode.md:17,16
02-Exode.md:18,27
02-Exode.md:19,25
02-Exode.md:20,26
02-Exode.md:21,37
02-Exode.md:22,30
02-Exode.md:23,33
02-Exode.md:24,18
02-Exode.md:25,40
02-Exode.md:26,37
02-Exode.md:27,21
02-Exode.md:28,43
02-Exode.md:29,46
02-Exode.md:30,38
02-Exode.md:31,18
02-Exode.md:32,35
02-Exode.md:33,23
02-Exode.md:34,35
02-Exode.md:35,35
02-Exode.md:36,38
02-Exode.md:37,29
02-Exode.md:38,31
02-Exode.md:39,43
02-Exode.md:40,38
03-Levitique.md:1,17
03-Levitique.md:2,16
03-Levitique.md:3,17
03-Levitique.md:4,35
03-Levitique.md:5,26
03-Levitique.md:6,23
03-Levitique.md:7,38
03-Levitique.md:8,36
03-Levitique.md:9,24
03-Levitique.md:10,20
03-Levitique.md:11,47
03-Levitique.md:12,8
03-Levitique.md:13,59
03-Levitique.md:14,57
03-Levitique.md:15,33
03-Levitique.md:16,34
03-Levitique.md:17,16
03-Levitique.md:18,30
03-Levitique.md:19,37
03-Levitique.md:20,27
03-Levitique.md:21,24
03-Levitique.md:22,33
03-Levitique.md:23,44
03-Levitique.md:24,23
03-Levitique.md:25,55
03-Levitique.md:26,46
03-Levitique.md:27,34
04-Nombres.md:1,54
04-Nombres.md:2,34
04-Nombres.md:3,51
04-Nombres.md:4,49
04-Nombres.md:5,31
04-Nombres.md:6,27
04-Nombres.md:7,89
04-Nombres.md:8,26
04-Nombres.md:9,23
04-Nombres.md:10,36
04-Nombres.md:11,35
04-Nombres.md:12,16
04-Nombres.md:13,33
04-Nombres.md:14,45
04-Nombres.md:15,41
04-Nombres.md:16,35
04-Nombres.md:17,28
04-Nombres.md:18,32
04-Nombres.md:19,22
04-Nombres.md:20,29
04-Nombres.md:21,35
04-Nombres.md:22,41
04-Nombres.md:23,30
04-Nombres.md:24,25
04-Nombres.md:25,18
04-Nombres.md:26,65
04-Nombres.md:27,23
04-Nombres.md:28,31
04-Nombres.md:29,39
04-Nombres.md:30,17
04-Nombres.md:31,54
04-Nombres.md:32,42
04-Nombres.md:33,56
04-Nombres.md:34,29
04-Nombres.md:35,34
04-Nombres.md:36,13
05-Deuteronome.md:1,46
05-Deuteronome.md:2,37
05-Deuteronome.md:3,29
05-Deuteronome.md:4,49
05-Deuteronome.md:5,33
05-Deuteronome.md:6,25
05-Deuteronome.md:7,26
05-Deuteronome.md:8,20
05-Deuteronome.md:9,29
05-Deuteronome.md:10,22
05-Deuteronome.md:11,32
05-Deuteronome.md:12,31
05-Deuteronome.md:13,19
05-Deuteronome.md:14,29
05-Deuteronome.md:15,23
05-Deuteronome.md:16,22
05-Deuteronome.md:17,20
05-Deuteronome.md:18,22
05-Deuteronome.md:19,21
05-Deuteronome.md:20,20
05-Deuteronome.md:21,23
05-Deuteronome.md:22,29
05-Deuteronome.md:23,26
05-Deuteronome.md:24,22
05-Deuteronome.md:25,19
05-Deuteronome.md:26,19
05-Deuteronome.md:27,26
05-Deuteronome.md:28,69
05-Deuteronome.md:29,28
05-Deuteronome.md:30,20
05-Deuteronome.md:31,30
05-Deuteronome.md:32,52
05-Deuteronome.md:33,29
05-Deuteronome.md:34,12
06-Josue.md:1,18
06-Josue.md:2,24
06-Josue.md:3,17
06-Josue.md:4,24
06-Josue.md:5,15
06-Josue.md:6,27
06-Josue.md:7,26
06-Josue.md:8,35
06-Josue.md:9,27
06-Josue.md:10,43
06-Josue.md:11,23
06-Josue.md:12,24
06-Josue.md:13,33
06-Josue.md:14,15
06-Josue.md:15,63
06-Josue.md:16,10
06-Josue.md:17,18
06-Josue.md:18,28
06-Josue.md:19,51
06-Josue.md:20,9
06-Josue.md:21,45
06-Josue.md:22,34
06-Josue.md:23,16
06-Josue.md:24,33
07-Juges.md:1,36
07-Juges.md:2,23
07-Juges.md:3,31
07-Juges.md:4,24
07-Juges.md:5,31
07-Juges.md:6,40
07-Juges.md:7,25
07-Juges.md:8,35
07-Juges.md:9,57
07-Juges.md:10,18
07-Juges.md:11,40
07-Juges.md:12,15
07-Juges.md:13,25
07-Juges.md:14,20
07-Juges.md:15,20
07-Juges.md:16,31
07-Juges.md:17,13
07-Juges.md:18,31
07-Juges.md:19,30
07-Juges.md:20,48
07-Juges.md:21,25
08-1Samuel.md:1,28
08-1Samuel.md:2,36
08-1Samuel.md:3,21
08-1Samuel.md:4,22
08-1Samuel.md:5,12
08-1Samuel.md:6,21
08-1Samuel.md:7,17
08-1Samuel.md:8,22
08-1Samuel.md:9,27
08-1Samuel.md:10,27
08-1Samuel.md:11,15
08-1Samuel.md:12,25
08-1Samuel.md:13,23
08-1Samuel.md:14,52
08-1Samuel.md:15,35
08-1Samuel.md:16,23
08-1Samuel.md:17,58
08-1Samuel.md:18,30
08-1Samuel.md:19,24
08-1Samuel.md:20,42
08-1Samuel.md:21,16
08-1Samuel.md:22,23
08-1Samuel.md:23,28
08-1Samuel.md:24,23
08-1Samuel.md:25,44
08-1Samuel.md:26,25
08-1Samuel.md:27,12
08-1Samuel.md:28,25
08-1Samuel.md:29,11
08-1Samuel.md:30,31
08-1Samuel.md:31,13
09-2Samuel.md:1,27
09-2Samuel.md:2,32
09-2Samuel.md:3,39
09-2Samuel.md:4,12
09-2Samuel.md:5,25
09-2Samuel.md:6,23
09-2Samuel.md:7,29
09-2Samuel.md:8,18
09-2Samuel.md:9,13
09-2Samuel.md:10,19
09-2Samuel.md:11,27
09-2Samuel.md:12,31
09-2Samuel.md:13,39
09-2Samuel.md:14,33
09-2Samuel.md:15,37
09-2Samuel.md:16,23
09-2Samuel.md:17,29
09-2Samuel.md:18,32
09-2Samuel.md:19,44
09-2Samuel.md:20,26
09-2Samuel.md:21,22
09-2Samuel.md:22,51
09-2Samuel.md:23,39
09-2Samuel.md:24,25
10-1Rois.md:1,53
10-1Rois.md:2,46
10-1Rois.md:3,28
10-1Rois.md:4,20
10-1Rois.md:5,32
10-1Rois.md:6,38
10-1Rois.md:7,51
10-1Rois.md:8,66
10-1Rois.md:9,28
10-1Rois.md:10,29
10-1Rois.md:11,43
10-1Rois.md:12,33
10-1Rois.md:13,34
10-1Rois.md:14,31
10-1Rois.md:15,34
10-1Rois.md:16,34
10-1Rois.md:17,24
10-1Rois.md:18,46
10-1Rois.md:19,21
10-1Rois.md:20,43
10-1Rois.md:21,29
10-1Rois.md:22,54
11-2Rois.md:1,18
11-2Rois.md:2,25
11-2Rois.md:3,27
11-2Rois.md:4,44
11-2Rois.md:5,27
11-2Rois.md:6,33
11-2Rois.md:7,20
11-2Rois.md:8,29
11-2Rois.md:9,37
11-2Rois.md:10,36
11-2Rois.md:11,20
11-2Rois.md:12,22
11-2Rois.md:13,25
11-2Rois.md:14,29
11-2Rois.md:15,38
11-2Rois.md:16,20
11-2Rois.md:17,41
11-2Rois.md:18,37
11-2Rois.md:19,37
11-2Rois.md:20,21
11-2Rois.md:21,26
11-2Rois.md:22,20
11-2Rois.md:23,37
11-2Rois.md:24,20
11-2Rois.md:25,30
12-Esaie.md:1,31
12-Esaie.md:2,22
12-Esaie.md:3,26
12-Esaie.md:4,6
12-Esaie.md:5,30
12-Esaie.md:6,13
12-Esaie.md:7,25
12-Esaie.md:8,23
12-Esaie.md:9,20
12-Esaie.md:10,34
12-Esaie.md:11,16
12-Esaie.md:12,6
12-Esaie.md:13,22
12-Esaie.md:14,32
12-Esaie.md:15,9
12-Esaie.md:16,14
12-Esaie.md:17,14
12-Esaie.md:18,7
12-Esaie.md:19,25
12-Esaie.md:20,6
12-Esaie.md:21,17
12-Esaie.md:22,25
12-Esaie.md:23,18
12-Esaie.md:24,23
12-Esaie.md:25,12
12-Esaie.md:26,21
12-Esaie.md:27,13
12-Esaie.md:28,29
12-Esaie.md:29,24
12-Esaie.md:30,33
12-Esaie.md:31,9
12-Esaie.md:32,20
12-Esaie.md:33,24
12-Esaie.md:34,17
12-Esaie.md:35,10
12-Esaie.md:36,22
12-Esaie.md:37,38
12-Esaie.md:38,22
12-Esaie.md:39,8
12-Esaie.md:40,31
12-Esaie.md:41,29
12-Esaie.md:42,25
12-Esaie.md:43,28
12-Esaie.md:44,28
12-Esaie.md:45,25
12-Esaie.md:46,13
12-Esaie.md:47,15
12-Esaie.md:48,22
12-Esaie.md:49,26
12-Esaie.md:50,11
12-Esaie.md:51,23
12-Esaie.md:52,15
12-Esaie.md:53,12
12-Esaie.md:54,17
12-Esaie.md:55,13
12-Esaie.md:56,12
12-Esaie.md:57,21
12-Esaie.md:58,14
12-Esaie.md:59,21
12-Esaie.md:60,22
12-Esaie.md:61,11
12-Esaie.md:62,12
12-Esaie.md:63,19
12-Esaie.md:64,11
12-Esaie.md:65,25
12-Esaie.md:66,24
13-Jeremie.md:1,19
13-Jeremie.md:2,37
13-Jeremie.md:3,25
13-Jeremie.md:4,31
13-Jeremie.md:5,31
13-Jeremie.md:6,30
13-Jeremie.md:7,34
13-Jeremie.md:8,23
13-Jeremie.md:9,25
13-Jeremie.md:10,25
13-Jeremie.md:11,23
13-Jeremie.md:12,17
13-Jeremie.md:13,27
13-Jeremie.md:14,22
13-Jeremie.md:15,21
13-Jeremie.md:16,21
13-Jeremie.md:17,27
13-Jeremie.md:18,23
13-Jeremie.md:19,15
13-Jeremie.md:20,18
13-Jeremie.md:21,14
13-Jeremie.md:22,30
13-Jeremie.md:23,40
13-Jeremie.md:24,10
13-Jeremie.md:25,38
13-Jeremie.md:26,24
13-Jeremie.md:27,22
13-Jeremie.md:28,17
13-Jeremie.md:29,32
13-Jeremie.md:30,24
13-Jeremie.md:31,40
13-Jeremie.md:32,44
13-Jeremie.md:33,26
13-Jeremie.md:34,22
13-Jeremie.md:35,19
13-Jeremie.md:36,32
13-Jeremie.md:37,21
13-Jeremie.md:38,28
13-Jeremie.md:39,18
13-Jeremie.md:40,16
13-Jeremie.md:41,18
13-Jeremie.md:42,22
13-Jeremie.md:43,13
13-Jeremie.md:44,30
13-Jeremie.md:45,5
13-Jeremie.md:46,28
13-Jeremie.md:47,7
13-Jeremie.md:48,47
13-Jeremie.md:49,39
13-Jeremie.md:50,46
13-Jeremie.md:51,64
13-Jeremie.md:52,34
14-Ezechiel.md:1,28
14-Ezechiel.md:2,10
14-Ezechiel.md:3,27
14-Ezechiel.md:4,17
14-Ezechiel.md:5,17
14-Ezechiel.md:6,14
14-Ezechiel.md:7,27
14-Ezechiel.md:8,18
14-Ezechiel.md:9,11
14-Ezechiel.md:10,22
14-Ezechiel.md:11,25
14-Ezechiel.md:12,28
14-Ezechiel.md:13,23
14-Ezechiel.md:14,23
14-Ezechiel.md:15,8
14-Ezechiel.md:16,63
14-Ezechiel.md:17,24
14-Ezechiel.md:18,32
14-Ezechiel.md:19,14
14-Ezechiel.md:20,44
14-Ezechiel.md:21,37
14-Ezechiel.md:22,31
14-Ezechiel.md:23,49
14-Ezechiel.md:24,27
14-Ezechiel.md:25,17
14-Ezechiel.md:26,21
14-Ezechiel.md:27,36
14-Ezechiel.md:28,26
14-Ezechiel.md:29,21
14-Ezechiel.md:30,26
14-Ezechiel.md:31,18
14-Ezechiel.md:32,32
14-Ezechiel.md:33,33
14-Ezechiel.md:34,31
14-Ezechiel.md:35,15
14-Ezechiel.md:36,38
14-Ezechiel.md:37,28
14-Ezechiel.md:38,23
14-Ezechiel.md:39,29
14-Ezechiel.md:40,49
14-Ezechiel.md:41,26
14-Ezechiel.md:42,20
14-Ezechiel.md:43,27
14-Ezechiel.md:44,31
14-Ezechiel.md:45,25
14-Ezechiel.md:46,24
14-Ezechiel.md:47,23
14-Ezechiel.md:48,35
15-Osee.md:1,9
15-Osee.md:2,25
15-Osee.md:3,5
15-Osee.md:4,19
15-Osee.md:5,15
15-Osee.md:6,11
15-Osee.md:7,16
15-Osee.md:8,14
15-Osee.md:9,17
15-Osee.md:10,15
15-Osee.md:11,11
15-Osee.md:12,15
15-Osee.md:13,15
15-Osee.md:14,10
16-Joel.md:1,20
16-Joel.md:2,27
16-Joel.md:3,5
16-Joel.md:4,21
17-Amos.md:1,15
17-Amos.md:2,16
17-Amos.md:3,15
17-Amos.md:4,13
17-Amos.md:5,27
17-Amos.md:6,14
17-Amos.md:7,17
17-Amos.md:8,14
17-Amos.md:9,15
18-Abdias.md:1,21
19-Jonas.md:1,16
19-Jonas.md:2,11
19-Jonas.md:3,10
19-Jonas.md:4,11
20-Michee.md:1,16
20-Michee.md:2,13
20-Michee.md:3,12
20-Michee.md:4,14
20-Michee.md:5,14
20-Michee.md:6,16
20-Michee.md:7,20
21-Nahum.md:1,14
21-Nahum.md:2,14
21-Nahum.md:3,19
22-Habakuk.md:1,17
22-Habakuk.md:2,20
22-Habakuk.md:3,19
23-Sophonie.md:1,18
23-Sophonie.md:2,15
23-Sophonie.md:3,20
24-Aggee.md:1,15
24-Aggee.md:2,23
25-Zacharie.md:1,17
25-Zacharie.md:2,17
25-Zacharie.md:3,10
25-Zacharie.md:4,14
25-Zacharie.md:5,11
25-Zacharie.md:6,15
25-Zacharie.md:7,14
25-Zacharie.md:8,23
25-Zacharie.md:9,17
25-Zacharie.md:10,12
25-Zacharie.md:11,17
25-Zacharie.md:12,14
25-Zacharie.md:13,9
25-Zacharie.md:14,21
26-Malachie.md:1,14
26-Malachie.md:2,17
26-Malachie.md:3,24
27-Psaumes.md:1,6
27-Psaumes.md:2,12
27-Psaumes.md:3,9
27-Psaumes.md:4,9
27-Psaumes.md:5,13
27-Psaumes.md:6,11
27-Psaumes.md:7,18
27-Psaumes.md:8,10
27-Psaumes.md:9,21
27-Psaumes.md:10,18
27-Psaumes.md:11,7
27-Psaumes.md:12,9
27-Psaumes.md:13,6
27-Psaumes.md:14,7
27-Psaumes.md:15,5
27-Psaumes.md:16,11
27-Psaumes.md:17,15
27-Psaumes.md:18,51
27-Psaumes.md:19,15
27-Psaumes.md:20,10
27-Psaumes.md:21,14
27-Psaumes.md:22,32
27-Psaumes.md:23,6
27-Psaumes.md:24,10
27-Psaumes.md:25,22
27-Psaumes.md:26,12
27-Psaumes.md:27,14
27-Psaumes.md:28,9
27-Psaumes.md:29,11
27-Psaumes.md:30,13
27-Psaumes.md:31,25
27-Psaumes.md:32,11
27-Psaumes.md:33,22
27-Psaumes.md:34,23
27-Psaumes.md:35,28
27-Psaumes.md:36,13
27-Psaumes.md:37,40
27-Psaumes.md:38,23
27-Psaumes.md:39,14
27-Psaumes.md:40,18
27-Psaumes.md:41,14
27-Psaumes.md:42,12
27-Psaumes.md:43,5
27-Psaumes.md:44,27
27-Psaumes.md:45,18
27-Psaumes.md:46,12
27-Psaumes.md:47,10
27-Psaumes.md:48,15
27-Psaumes.md:49,21
27-Psaumes.md:50,23
27-Psaumes.md:51,21
27-Psaumes.md:52,11
27-Psaumes.md:53,7
27-Psaumes.md:54,9
27-Psaumes.md:55,24
27-Psaumes.md:56,14
27-Psaumes.md:57,12
27-Psaumes.md:58,12
27-Psaumes.md:59,18
27-Psaumes.md:60,14
27-Psaumes.md:61,9
27-Psaumes.md:62,13
27-Psaumes.md:63,12
27-Psaumes.md:64,11
27-Psaumes.md:65,14
27-Psaumes.md:66,20
27-Psaumes.md:67,8
27-Psaumes.md:68,36
27-Psaumes.md:69,37
27-Psaumes.md:70,6
27-Psaumes.md:71,24
27-Psaumes.md:72,20
27-Psaumes.md:73,28
27-Psaumes.md:74,23
27-Psaumes.md:75,11
27-Psaumes.md:76,13
27-Psaumes.md:77,21
27-Psaumes.md:78,72
27-Psaumes.md:79,13
27-Psaumes.md:80,20
27-Psaumes.md:81,17
27-Psaumes.md:82,8
27-Psaumes.md:83,19
27-Psaumes.md:84,13
27-Psaumes.md:85,14
27-Psaumes.md:86,17
27-Psaumes.md:87,7
27-Psaumes.md:88,19
27-Psaumes.md:89,53
27-Psaumes.md:90,17
27-Psaumes.md:91,16
27-Psaumes.md:92,16
27-Psaumes.md:93,5
27-Psaumes.md:94,23
27-Psaumes.md:95,11
27-Psaumes.md:96,13
27-Psaumes.md:97,12
27-Psaumes.md:98,9
27-Psaumes.md:99,9
27-Psaumes.md:100,5
27-Psaumes.md:101,8
27-Psaumes.md:102,29
27-Psaumes.md:103,22
27-Psaumes.md:104,35
27-Psaumes.md:105,45
27-Psaumes.md:106,48
27-Psaumes.md:107,43
27-Psaumes.md:108,14
27-Psaumes.md:109,31
27-Psaumes.md:110,7
27-Psaumes.md:111,10
27-Psaumes.md:112,10
27-Psaumes.md:113,9
27-Psaumes.md:114,8
27-Psaumes.md:115,18
27-Psaumes.md:116,19
27-Psaumes.md:117,2
27-Psaumes.md:118,29
27-Psaumes.md:119,176
27-Psaumes.md:120,7
27-Psaumes.md:121,8
27-Psaumes.md:122,9
27-Psaumes.md:123,4
27-Psaumes.md:124,8
27-Psaumes.md:125,5
27-Psaumes.md:126,6
27-Psaumes.md:127,5
27-Psaumes.md:128,6
27-Psaumes.md:129,8
27-Psaumes.md:130,8
27-Psaumes.md:131,3
27-Psaumes.md:132,18
27-Psaumes.md:133,3
27-Psaumes.md:134,3
27-Psaumes.md:135,21
27-Psaumes.md:136,26
27-Psaumes.md:137,9
27-Psaumes.md:138,8
27-Psaumes.md:139,24
27-Psaumes.md:140,14
27-Psaumes.md:141,10
27-Psaumes.md:142,8
27-Psaumes.md:143,12
27-Psaumes.md:144,15
27-Psaumes.md:145,21
27-Psaumes.md:146,10
27-Psaumes.md:147,20
27-Psaumes.md:148,14
27-Psaumes.md:149,9
27-Psaumes.md:150,6
28-Proverbes.md:1,33
28-Proverbes.md:2,22
28-Proverbes.md:3,35
28-Proverbes.md:4,27
28-Proverbes.md:5,23
28-Proverbes.md:6,35
28-Proverbes.md:7,27
28-Proverbes.md:8,36
28-Proverbes.md:9,18
28-Proverbes.md:10,32
28-Proverbes.md:11,31
28-Proverbes.md:12,28
28-Proverbes.md:13,25
28-Proverbes.md:14,35
28-Proverbes.md:15,33
28-Proverbes.md:16,33
28-Proverbes.md:17,28
28-Proverbes.md:18,24
28-Proverbes.md:19,29
28-Proverbes.md:20,30
28-Proverbes.md:21,31
28-Proverbes.md:22,29
28-Proverbes.md:23,35
28-Proverbes.md:24,34
28-Proverbes.md:25,28
28-Proverbes.md:26,28
28-Proverbes.md:27,27
28-Proverbes.md:28,28
28-Proverbes.md:29,27
28-Proverbes.md:30,33
28-Proverbes.md:31,31
29-Job.md:1,22
29-Job.md:2,13
29-Job.md:3,26
29-Job.md:4,21
29-Job.md:5,27
29-Job.md:6,30
29-Job.md:7,21
29-Job.md:8,22
29-Job.md:9,35
29-Job.md:10,22
29-Job.md:11,20
29-Job.md:12,25
29-Job.md:13,28
29-Job.md:14,22
29-Job.md:15,35
29-Job.md:16,22
29-Job.md:17,16
29-Job.md:18,21
29-Job.md:19,29
29-Job.md:20,29
29-Job.md:21,34
29-Job.md:22,30
29-Job.md:23,17
29-Job.md:24,25
29-Job.md:25,6
29-Job.md:26,14
29-Job.md:27,23
29-Job.md:28,28
29-Job.md:29,25
29-Job.md:30,31
29-Job.md:31,40
29-Job.md:32,22
29-Job.md:33,33
29-Job.md:34,37
29-Job.md:35,16
29-Job.md:36,33
29-Job.md:37,24
29-Job.md:38,41
29-Job.md:39,30
29-Job.md:40,32
29-Job.md:41,26
29-Job.md:42,17
30-Cantiques.md:1,17
30-Cantiques.md:2,17
30-Cantiques.md:3,11
30-Cantiques.md:4,16
30-Cantiques.md:5,16
30-Cantiques.md:6,12
30-Cantiques.md:7,14
30-Cantiques.md:8,14
31-Ruth.md:1,22
31-Ruth.md:2,23
31-Ruth.md:3,18
31-Ruth.md:4,22
32-Lamentations.md:1,22
32-Lamentations.md:2,22
32-Lamentations.md:3,66
32-Lamentations.md:4,22
32-Lamentations.md:5,22
33-Ecclesiaste.md:1,18
33-Ecclesiaste.md:2,26
33-Ecclesiaste.md:3,22
33-Ecclesiaste.md:4,17
33-Ecclesiaste.md:5,19
33-Ecclesiaste.md:6,12
33-Ecclesiaste.md:7,29
33-Ecclesiaste.md:8,17
33-Ecclesiaste.md:9,18
33-Ecclesiaste.md:10,20
33-Ecclesiaste.md:11,10
33-Ecclesiaste.md:12,14
34-Esther.md:1,22
34-Esther.md:2,23
34-Esther.md:3,15
34-Esther.md:4,17
34-Esther.md:5,14
34-Esther.md:6,14
34-Esther.md:7,10
34-Esther.md:8,17
34-Esther.md:9,32
34-Esther.md:10,3
35-Daniel.md:1,21
35-Daniel.md:2,49
35-Daniel.md:3,33
35-Daniel.md:4,34
35-Daniel.md:5,30
35-Daniel.md:6,29
35-Daniel.md:7,28
35-Daniel.md:8,27
35-Daniel.md:9,27
35-Daniel.md:10,21
35-Daniel.md:11,45
35-Daniel.md:12,13
36-Esdras.md:1,11
36-Esdras.md:2,70
36-Esdras.md:3,13
36-Esdras.md:4,24
36-Esdras.md:5,17
36-Esdras.md:6,22
36-Esdras.md:7,28
36-Esdras.md:8,36
36-Esdras.md:9,15
36-Esdras.md:10,44
37-Nehemie.md:1,11
37-Nehemie.md:2,20
37-Nehemie.md:3,38
37-Nehemie.md:4,17
37-Nehemie.md:5,19
37-Nehemie.md:6,19
37-Nehemie.md:7,73
37-Nehemie.md:8,18
37-Nehemie.md:9,37
37-Nehemie.md:10,40
37-Nehemie.md:11,36
37-Nehemie.md:12,47
37-Nehemie.md:13,31
38-1Chroniques.md:1,54
38-1Chroniques.md:2,55
38-1Chroniques.md:3,24
38-1Chroniques.md:4,43
38-1Chroniques.md:5,41
38-1Chroniques.md:6,66
38-1Chroniques.md:7,40
38-1Chroniques.md:8,40
38-1Chroniques.md:9,44
38-1Chroniques.md:10,14
38-1Chroniques.md:11,47
38-1Chroniques.md:12,41
38-1Chroniques.md:13,14
38-1Chroniques.md:14,17
38-1Chroniques.md:15,29
38-1Chroniques.md:16,43
38-1Chroniques.md:17,27
38-1Chroniques.md:18,17
38-1Chroniques.md:19,19
38-1Chroniques.md:20,8
38-1Chroniques.md:21,30
38-1Chroniques.md:22,19
38-1Chroniques.md:23,32
38-1Chroniques.md:24,31
38-1Chroniques.md:25,31
38-1Chroniques.md:26,32
38-1Chroniques.md:27,34
38-1Chroniques.md:28,21
38-1Chroniques.md:29,30
39-2Chroniques.md:1,18
39-2Chroniques.md:2,17
39-2Chroniques.md:3,17
39-2Chroniques.md:4,22
39-2Chroniques.md:5,14
39-2Chroniques.md:6,42
39-2Chroniques.md:7,22
39-2Chroniques.md:8,18
39-2Chroniques.md:9,31
39-2Chroniques.md:10,19
39-2Chroniques.md:11,23
39-2Chroniques.md:12,16
39-2Chroniques.md:13,23
39-2Chroniques.md:14,14
39-2Chroniques.md:15,19
39-2Chroniques.md:16,14
39-2Chroniques.md:17,19
39-2Chroniques.md:18,34
39-2Chroniques.md:19,11
39-2Chroniques.md:20,37
39-2Chroniques.md:21,20
39-2Chroniques.md:22,12
39-2Chroniques.md:23,21
39-2Chroniques.md:24,27
39-2Chroniques.md:25,28
39-2Chroniques.md:26,23
39-2Chroniques.md:27,9
39-2Chroniques.md:28,27
39-2Chroniques.md:29,36
39-2Chroniques.md:30,27
39-2Chroniques.md:31,21
39-2Chroniques.md:32,33
39-2Chroniques.md:33,25
39-2Chroniques.md:34,33
39-2Chroniques.md:35,27
39-2Chroniques.md:36,23
40-Matthieu.md:1,25
40-Matthieu.md:2,23
40-Matthieu.md:3,17
40-Matthieu.md:4,25
40-Matthieu.md:5,48
40-Matthieu.md:6,34
40-Matthieu.md:7,29
40-Matthieu.md:8,34
40-Matthieu.md:9,38
40-Matthieu.md:10,42
40-Matthieu.md:11,30
40-Matthieu.md:12,50
40-Matthieu.md:13,58
40-Matthieu.md:14,36
40-Matthieu.md:15,39
40-Matthieu.md:16,28
40-Matthieu.md:17,27
40-Matthieu.md:18,35
40-Matthieu.md:19,30
40-Matthieu.md:20,34
40-Matthieu.md:21,46
40-Matthieu.md:22,46
40-Matthieu.md:23,39
40-Matthieu.md:24,51
40-Matthieu.md:25,46
40-Matthieu.md:26,75
40-Matthieu.md:27,66
40-Matthieu.md:28,20
41-Marc.md:1,45
41-Marc.md:2,28
41-Marc.md:3,35
41-Marc.md:4,41
41-Marc.md:5,43
41-Marc.md:6,56
41-Marc.md:7,37
41-Marc.md:8,38
41-Marc.md:9,50
41-Marc.md:10,52
41-Marc.md:11,33
41-Marc.md:12,44
41-Marc.md:13,37
41-Marc.md:14,72
41-Marc.md:15,47
41-Marc.md:16,20
42-Luc.md:1,80
42-Luc.md:2,52
42-Luc.md:3,38
42-Luc.md:4,44
42-Luc.md:5,39
42-Luc.md:6,49
42-Luc.md:7,50
42-Luc.md:8,56
42-Luc.md:9,62
42-Luc.md:10,42
42-Luc.md:11,54
42-Luc.md:12,59
42-Luc.md:13,35
42-Luc.md:14,35
42-Luc.md:15,32
42-Luc.md:16,31
42-Luc.md:17,37
42-Luc.md:18,43
42-Luc.md:19,48
42-Luc.md:20,47
42-Luc.md:21,38
42-Luc.md:22,71
42-Luc.md:23,56
42-Luc.md:24,53
43-Jean.md:1,51
43-Jean.md:2,25
43-Jean.md:3,36
43-Jean.md:4,54
43-Jean.md:5,47
43-Jean.md:6,71
43-Jean.md:7,53
43-Jean.md:8,59
43-Jean.md:9,41
43-Jean.md:10,42
43-Jean.md:11,57
43-Jean.md:12,50
43-Jean.md:13,38
43-Jean.md:14,31
43-Jean.md:15,27
43-Jean.md:16,33
43-Jean.md:17,26
43-Jean.md:18,40
43-Jean.md:19,42
43-Jean.md:20,31
43-Jean.md:21,25
44-Actes.md:1,26
44-Actes.md:2,47
44-Actes.md:3,26
44-Actes.md:4,37
44-Actes.md:5,42
44-Actes.md:6,15
44-Actes.md:7,60
44-Actes.md:8,40
44-Actes.md:9,43
44-Actes.md:10,48
44-Actes.md:11,30
44-Actes.md:12,25
44-Actes.md:13,52
44-Actes.md:14,28
44-Actes.md:15,41
44-Actes.md:16,40
44-Actes.md:17,34
44-Actes.md:18,28
44-Actes.md:19,41
44-Actes.md:20,38
44-Actes.md:21,40
44-Actes.md:22,30
44-Actes.md:23,35
44-Actes.md:24,27
44-Actes.md:25,27
44-Actes.md:26,32
44-Actes.md:27,44
44-Actes.md:28,31
45-Jacques.md:1,27
45-Jacques.md:2,26
45-Jacques.md:3,18
45-Jacques.md:4,17
45-Jacques.md:5,20
46-Galates.md:1,24
46-Galates.md:2,21
46-Galates.md:3,29
46-Galates.md:4,31
46-Galates.md:5,26
46-Galates.md:6,18
47-1Thessaloniciens.md:1,10
47-1Thessaloniciens.md:2,20
47-1Thessaloniciens.md:3,13
47-1Thessaloniciens.md:4,18
47-1Thessaloniciens.md:5,28
48-2Thessaloniciens.md:1,12
48-2Thessaloniciens.md:2,17
48-2Thessaloniciens.md:3,18
49-1Corinthiens.md:1,31
49-1Corinthiens.md:2,16
49-1Corinthiens.md:3,23
49-1Corinthiens.md:4,21
49-1Corinthiens.md:5,13
49-1Corinthiens.md:6,20
49-1Corinthiens.md:7,40
49-1Corinthiens.md:8,13
49-1Corinthiens.md:9,27
49-1Corinthiens.md:10,33
49-1Corinthiens.md:11,34
49-1Corinthiens.md:12,31
49-1Corinthiens.md:13,13
49-1Corinthiens.md:14,40
49-1Corinthiens.md:15,58
49-1Corinthiens.md:16,24
50-2Corinthiens.md:1,24
50-2Corinthiens.md:2,17
50-2Corinthiens.md:3,18
50-2Corinthiens.md:4,18
50-2Corinthiens.md:5,21
50-2Corinthiens.md:6,18
50-2Corinthiens.md:7,16
50-2Corinthiens.md:8,24
50-2Corinthiens.md:9,15
50-2Corinthiens.md:10,18
50-2Corinthiens.md:11,33
50-2Corinthiens.md:12,21
50-2Corinthiens.md:13,14
51-Romains.md:1,32
51-Romains.md:2,29
51-Romains.md:3,31
51-Romains.md:4,25
51-Romains.md:5,21
51-Romains.md:6,23
51-Romains.md:7,25
51-Romains.md:8,39
51-Romains.md:9,33
51-Romains.md:10,21
51-Romains.md:11,36
51-Romains.md:12,21
51-Romains.md:13,14
51-Romains.md:14,23
51-Romains.md:15,33
51-Romains.md:16,27
52-Ephesiens.md:1,23
52-Ephesiens.md:2,22
52-Ephesiens.md:3,21
52-Ephesiens.md:4,32
52-Ephesiens.md:5,33
52-Ephesiens.md:6,24
53-Philippiens.md:1,30
53-Philippiens.md:2,30
53-Philippiens.md:3,21
53-Philippiens.md:4,23
54-Colossiens.md:1,29
54-Colossiens.md:2,23
54-Colossiens.md:3,25
54-Colossiens.md:4,18
55-Philemon.md:1,25
56-1Timothee.md:1,20
56-1Timothee.md:2,15
56-1Timothee.md:3,16
56-1Timothee.md:4,16
56-1Timothee.md:5,25
56-1Timothee.md:6,21
57-Tite.md:1,16
57-Tite.md:2,15
57-Tite.md:3,15
58-1Pierre.md:1,25
58-1Pierre.md:2,25
58-1Pierre.md:3,22
58-1Pierre.md:4,19
58-1Pierre.md:5,14
59-2Pierre.md:1,21
59-2Pierre.md:2,22
59-2Pierre.md:3,18
60-2Timothee.md:1,18
60-2Timothee.md:2,26
60-2Timothee.md:3,17
60-2Timothee.md:4,22
61-Jude.md:1,25
62-Hebreux.md:1,14
62-Hebreux.md:2,18
62-Hebreux.md:3,19
62-Hebreux.md:4,16
62-Hebreux.md:5,14
62-Hebreux.md:6,20
62-Hebreux.md:7,28
62-Hebreux.md:8,13
62-Hebreux.md:9,28
62-Hebreux.md:10,39
62-Hebreux.md:11,40
62-Hebreux.md:12,29
62-Hebreux.md:13,25
63-1Jean.md:1,10
63-1Jean.md:2,29
63-1Jean.md:3,24
63-1Jean.md:4,21
63-1Jean.md:5,21
64-2Jean.md:1,13
65-3Jean.md:1,14
66-Apocalypse.md:1,20
66-Apocalypse.md:2,29
66-Apocalypse.md:3,22
66-Apocalypse.md:4,11
66-Apocalypse.md:5,14
66-Apocalypse.md:6,17
66-Apocalypse.md:7,17
66-Apocalypse.md:8,13
66-Apocalypse.md:9,21
66-Apocalypse.md:10,11
66-Apocalypse.md:11,19
66-Apocalypse.md:12,17
66-Apocalypse.md:13,18
66-Apocalypse.md:14,20
66-Apocalypse.md:15,8
66-Apocalypse.md:16,21
66-Apocalypse.md:17,18
66-Apocalypse.md:18,24
66-Apocalypse.md:19,21
66-Apocalypse.md:20,15
66-Apocalypse.md:21,27
66-Apocalypse.md:22,21
